…
pluto_hotels
```

    ## # A tibble: 1,096 x 17
    ##       bbl borough bldgclass unitsres unitstotal lotarea bldgarea comarea resarea
    ##     <dbl> <chr>   <chr>        <dbl>      <dbl>   <dbl>    <dbl>   <dbl>   <dbl>
    ##  1 1.00e9 MN      HB               0          2    3234    24238    1600       0
    ##  2 1.00e9 MN      H5               0          1    9530    49197      NA      NA
    ##  3 1.00e9 MN      H3               0          4    3127    31214    2900       0
    ##  4 1.00e9 MN      HB               0          1    9850    48479      NA      NA
    ##  5 1.01e9 MN      HB              75         77   10000    67452   16600       0
    ##  6 1.01e9 MN      HB               8          9    5306    43600    5200       0
    ##  7 1.01e9 MN      H3              10         78    4130    20184      NA      NA
    ##  8 1.01e9 MN      H9               0          2    3360    24027   16800   20160
    ##  9 1.01e9 MN      H8               1          2    6453    28516      NA      NA
    ## 10 1.01e9 MN      H4               0          2    3612    10514    3961       0
    ## # … with 1,086 more rows, and 8 more variables: officearea <dbl>,
    ## #   retailarea <dbl>, garagearea <dbl>, strgearea <dbl>, factryarea <dbl>,
    ## #   otherarea <dbl>, latitude <dbl>, longitude <dbl>
…
